[gd_scene load_steps=6 format=2]

[ext_resource path="res://Light/Light.gd" type="Script" id=1]

[sub_resource type="RectangleShape2D" id=1]
extents = Vector2( 16, 16 )

[sub_resource type="StyleBoxFlat" id=4]
bg_color = Color( 0.937255, 0.498039, 0.227451, 1 )

[sub_resource type="StyleBoxFlat" id=3]
bg_color = Color( 0.92549, 0.580392, 0.133333, 1 )

[sub_resource type="StyleBoxFlat" id=2]
bg_color = Color( 1, 0.211765, 0, 1 )
border_width_left = 1
border_width_top = 2
border_width_right = 1
border_width_bottom = 2
border_color = Color( 0.498039, 0.0901961, 0.0901961, 1 )

[node name="Light" type="StaticBody2D"]
script = ExtResource( 1 )

[node name="CollisionShape2D" type="CollisionShape2D" parent="."]
shape = SubResource( 1 )

[node name="Button" type="Button" parent="."]
margin_left = -24.0
margin_top = -16.0
margin_right = 24.0
margin_bottom = 16.0
custom_styles/hover = SubResource( 4 )
custom_styles/pressed = SubResource( 3 )
custom_styles/normal = SubResource( 2 )
__meta__ = {
"_edit_use_anchors_": false
}
[connection signal="button_up" from="Button" to="." method="_on_Button_button_up"]
